<?xml version="1.0" encoding="UTF-8"?>
<svg width="20px" height="21px" viewBox="0 0 20 21" version="1.1" xmlns="http://www.w3.org/2000/svg" xmlns:xlink="http://www.w3.org/1999/xlink">
    <!-- Generator: Sketch 47.1 (45422) - http://www.bohemiancoding.com/sketch -->
    <title>ic_snooze_black_24px</title>
    <desc>Created with Sketch.</desc>
    <defs></defs>
    <g id="Page-1" stroke="none" stroke-width="1" fill="none" fill-rule="evenodd">
        <g id="ic_snooze_black_24px" transform="translate(-2.000000, -1.000000)">
            <polygon id="Shape" points="0 0 24 0 24 24 0 24"></polygon>
            <path d="M7.88,3.39 L6.6,1.86 L2,5.71 L3.29,7.24 L7.88,3.39 Z M22,5.72 L17.4,1.86 L16.11,3.39 L20.71,7.25 L22,5.72 Z M12,4 C7.03,4 3,8.03 3,13 C3,17.97 7.02,22 12,22 C16.97,22 21,17.97 21,13 C21,8.03 16.97,4 12,4 Z M12,20 C8.13,20 5,16.87 5,13 C5,9.13 8.13,6 12,6 C15.87,6 19,9.13 19,13 C19,16.87 15.87,20 12,20 Z M9,11 L12.63,11 L9,15.2 L9,17 L15,17 L15,15 L11.37,15 L15,10.8 L15,9 L9,9 L9,11 Z" id="Shape" fill="#464646" fill-rule="nonzero"></path>
        </g>
    </g>
</svg>